<?xml version="1.0" encoding="UTF-8" standalone="no"?>
<svg
   xmlns:dc="http://purl.org/dc/elements/1.1/"
   xmlns:cc="http://creativecommons.org/ns#"
   xmlns:rdf="http://www.w3.org/1999/02/22-rdf-syntax-ns#"
   xmlns:svg="http://www.w3.org/2000/svg"
   xmlns="http://www.w3.org/2000/svg"
   xmlns:sodipodi="http://sodipodi.sourceforge.net/DTD/sodipodi-0.dtd"
   xmlns:inkscape="http://www.inkscape.org/namespaces/inkscape"
   viewBox="0 0 103.15337 164.242"
   height="164.242"
   width="103.15337"
   xml:space="preserve"
   id="svg2"
   version="1.1"
   sodipodi:docname="CD_Projekt extracted.svg"
   inkscape:version="0.92.4 (5da689c313, 2019-01-14)"><sodipodi:namedview
     pagecolor="#ffffff"
     bordercolor="#666666"
     borderopacity="1"
     objecttolerance="10"
     gridtolerance="10"
     guidetolerance="10"
     inkscape:pageopacity="0"
     inkscape:pageshadow="2"
     inkscape:window-width="1366"
     inkscape:window-height="746"
     id="namedview3820"
     showgrid="false"
     inkscape:zoom="3.3066667"
     inkscape:cx="37.239043"
     inkscape:cy="96.939525"
     inkscape:window-x="1016"
     inkscape:window-y="631"
     inkscape:window-maximized="1"
     inkscape:current-layer="svg2"
     showguides="false" /><metadata
     id="metadata8"><rdf:RDF><cc:Work
         rdf:about=""><dc:format>image/svg+xml</dc:format><dc:type
           rdf:resource="http://purl.org/dc/dcmitype/StillImage" /><dc:title /></cc:Work></rdf:RDF></metadata><defs
     id="defs6"><clipPath
       id="clipPath66"
       clipPathUnits="userSpaceOnUse"><path
         id="path64"
         d="M 0,0 H 841.89 V 595.276 H 0 Z"
         inkscape:connector-curvature="0" /></clipPath></defs><g
     transform="matrix(1.3333333,0,0,-1.3333333,-4.8024532e-5,164.24202)"
     id="g10"><path
       id="path56"
       style="fill:#ffffff;fill-opacity:1;fill-rule:nonzero;stroke:none"
       d="M 336.756,267.874 H 782.362 V 476.22 H 336.756 Z"
       inkscape:connector-curvature="0" /><g
       transform="matrix(1.0825432,0,0,1.0825432,-493.2467,-352.45549)"
       id="g60"><g
         clip-path="url(#clipPath66)"
         id="g62"><g
           transform="translate(474.902,337.981)"
           id="g68"><path
             id="path70"
             style="fill:#000000;fill-opacity:1;fill-rule:nonzero;stroke:none"
             d="M 0,0 C 1.646,1.771 3.581,3.77 4.736,4.711 4.412,4.739 3.899,4.802 3.342,4.886 2.138,3.789 0.602,2.185 -0.774,0.715 -2.519,-1.166 -3.955,-2.81 -3.955,-2.818 c -0.023,-0.014 -0.031,-0.044 -0.053,-0.063 -1.14,-0.314 -3.073,-0.846 -4.36,-1.196 -1.907,-0.529 -3.618,-0.399 -3.618,-1.646 0,0 -1.974,-1.059 -1.512,-2.637 0,0 3.96,3.163 7.348,3.699 0,0 -2.07,-1.347 -1.882,-3.171 0,0 2.789,4.174 6.047,1.642 0,0 -1.452,1.973 -0.847,3.058 C -2.311,-2.541 -1.233,-1.329 0,0 m -6.272,49.279 c -0.171,-0.076 -0.349,-0.104 -0.532,-0.104 -0.577,0 -1.119,0.351 -1.354,0.923 -0.021,0.046 -0.048,0.102 -0.057,0.161 l -0.43,-0.143 c 0.361,-1.053 1.449,-1.629 2.43,-1.289 0.247,0.088 0.468,0.22 0.639,0.388 0.539,0.506 0.758,1.333 0.49,2.117 l -0.986,-0.336 c 0.062,-0.146 0.104,-0.303 0.104,-0.471 0,-0.145 -0.026,-0.277 -0.083,-0.403 l 0.449,-0.274 C -5.68,49.73 -5.775,49.612 -5.89,49.514 -5.994,49.416 -6.125,49.338 -6.272,49.279 m 39.903,3.196 -19.475,-4.75 v 0.021 l 0.006,-0.021 38.039,16.46 -31.35,-3.84 16.781,12.258 -17.982,-7.02 2.716,5.449 L 9.502,61.766 9.393,61.962 27.63,101.389 -2.026,66.288 -2.211,85.426 -13.092,59.845 l -0.565,7.541 -5.361,-19.622 0.01,0.006 v -0.006 c 0,0 0.722,0.535 1.694,0.828 0.078,0.021 0.156,0.04 0.235,0.063 0.01,0 0.019,0.008 0.031,0.008 0.078,0.017 0.156,0.035 0.235,0.048 0.01,0 0.021,0.008 0.036,0.008 0.08,0.014 0.157,0.025 0.247,0.031 v 0.008 c 0.084,0.007 0.166,0.011 0.245,0.018 h 0.051 c 0.079,0.008 0.164,0.008 0.252,0 0.006,0 0.01,0 0.03,-0.007 0.074,0 0.147,-0.004 0.225,-0.019 0.016,-0.006 0.025,-0.006 0.042,-0.006 0.086,-0.011 0.163,-0.025 0.241,-0.046 0.021,0 0.042,-0.007 0.052,-0.011 0.082,-0.021 0.166,-0.044 0.256,-0.074 1.834,-0.664 3.394,0 3.394,0 0,0 1.727,-1.109 1.727,-2.039 h -0.004 V 46.57 c 0,0 -2.272,-0.133 -2.272,0.874 0,0 -2.907,1.031 -6.974,-0.475 l 8.577,-3.688 c -0.006,0.039 -0.458,1.636 0.038,2.191 0.157,0.192 0.432,0.259 0.862,0.114 0.157,-0.056 0.271,-0.042 0.342,0.026 0.666,0.688 -2.568,6.66 -2.568,6.66 0,0 -2.903,0.282 -5.417,-2.346 -0.166,-0.174 -0.34,-0.361 -0.501,-0.566 v 0.009 -0.009 c 0.256,0.448 1.071,1.746 2.431,2.87 0.814,0.684 1.834,1.297 3.048,1.643 0.333,0.798 -0.09,0.278 0.596,0.698 0.006,0 0.006,0.007 0.006,0.007 0.322,2.106 1.514,7.53 5.626,12.168 0.276,0.308 0.56,0.619 0.863,0.914 0,0 -1.054,-1.982 -1.054,-3.36 0.03,0.035 1.071,1.596 2.509,3.024 v 0.006 c 0,0 -0.017,-0.022 -0.038,-0.062 -0.268,-0.571 -2.228,-4.757 -2.023,-5.979 0.005,-0.011 0.009,-0.018 0.009,-0.03 l 3.964,3.632 c 0,0 -0.011,-0.007 -0.017,-0.011 -0.115,-0.157 -3.721,-5.035 -4.077,-6.706 v -0.012 l 6.001,4.287 -0.006,-0.007 c -0.019,-0.035 -0.756,-1.061 -1.065,-1.624 -0.22,-0.403 -0.252,-0.539 -0.252,-0.581 l 0.01,-0.032 3.231,1.386 c 0,0 -0.14,-0.168 -0.366,-0.413 l -1.202,-1.222 -0.297,-0.314 -2.185,-2.209 -0.041,-0.05 -1.663,-1.69 -1.067,-1.087 c 0,0 -0.872,-0.908 -0.977,-1.379 -0.104,-0.463 0.387,-0.749 0.387,-0.749 h -0.005 c 0.444,-0.248 0.804,-0.631 1.013,-1.09 0.117,-0.278 0.182,-0.58 0.182,-0.905 0,-0.635 -0.26,-1.212 -0.695,-1.628 -0.427,-0.42 -1.029,-0.682 -1.692,-0.682 -0.603,0 -1.139,0.218 -1.558,0.569 0.073,-0.099 1.255,-1.584 3.423,-0.429 l 2.68,1.953 0.116,0.091 2.771,2.026 c 0.654,-0.771 1.271,-1.701 1.83,-2.755 -1.647,-1.564 -4.454,-4.277 -7.257,-7.244 -1.67,-1.764 -3.337,-3.629 -4.76,-5.39 l 1,4.695 0.082,0.388 c 0,0 -0.004,0 -0.004,-0.007 -0.011,-0.004 -0.017,-0.004 -0.025,-0.011 0,-0.004 -0.013,-0.011 -0.013,-0.011 -0.009,-0.006 -0.021,-0.006 -0.026,-0.021 -0.006,0 -0.014,-0.004 -0.014,-0.016 -0.011,-0.005 -0.028,-0.012 -0.038,-0.019 -0.006,-0.004 -0.01,-0.02 -0.027,-0.023 C -8.607,41.964 -8.623,41.948 -8.637,41.944 -8.645,41.93 -8.655,41.925 -8.671,41.913 -8.682,41.902 -8.69,41.891 -8.713,41.885 -8.728,41.87 -8.738,41.855 -8.755,41.846 -8.768,41.835 -8.785,41.815 -8.802,41.813 -8.816,41.792 -8.833,41.773 -8.847,41.768 -8.869,41.752 -8.885,41.734 -8.906,41.72 -8.921,41.709 -8.937,41.689 -8.95,41.674 -8.973,41.656 -9,41.642 -9.015,41.617 -9.042,41.607 -9.051,41.589 -9.078,41.577 -9.093,41.552 -9.12,41.533 -9.146,41.51 -9.161,41.493 -9.188,41.474 -9.204,41.454 -9.23,41.432 -9.261,41.407 -9.282,41.379 -9.303,41.36 -9.317,41.342 -9.345,41.328 c -0.02,-0.031 -0.051,-0.061 -0.088,-0.089 -0.021,-0.017 -0.037,-0.031 -0.052,-0.051 -0.017,-0.017 -0.037,-0.035 -0.059,-0.052 0,-0.007 -0.004,-0.007 -0.004,-0.007 -0.03,-0.028 -0.063,-0.064 -0.094,-0.098 -0.027,-0.016 -0.048,-0.044 -0.067,-0.07 -0.038,-0.028 -0.065,-0.06 -0.096,-0.089 -0.026,-0.025 -0.053,-0.056 -0.078,-0.079 -0.021,-0.032 -0.048,-0.056 -0.062,-0.075 -0.011,-0.009 -0.025,-0.024 -0.037,-0.035 0,-0.004 -0.01,-0.013 -0.021,-0.024 -0.02,-0.02 -0.037,-0.037 -0.058,-0.059 -0.026,-0.031 -0.052,-0.056 -0.078,-0.087 -0.006,-0.011 -0.01,-0.019 -0.021,-0.022 -0.011,-0.011 -0.02,-0.017 -0.031,-0.028 -0.014,-0.025 -0.032,-0.044 -0.053,-0.062 -0.031,-0.044 -0.062,-0.078 -0.104,-0.114 -0.026,-0.04 -0.058,-0.068 -0.084,-0.107 -0.031,-0.039 -0.073,-0.081 -0.105,-0.117 -0.031,-0.04 -0.06,-0.07 -0.089,-0.11 -0.041,-0.043 -0.072,-0.089 -0.114,-0.133 -0.026,-0.035 -0.059,-0.071 -0.092,-0.113 -0.034,-0.048 -0.07,-0.09 -0.112,-0.146 -0.031,-0.028 -0.058,-0.071 -0.09,-0.106 -0.039,-0.059 -0.082,-0.109 -0.124,-0.165 -0.033,-0.042 -0.058,-0.07 -0.079,-0.108 -0.052,-0.067 -0.105,-0.134 -0.157,-0.202 -0.016,-0.026 -0.043,-0.057 -0.057,-0.082 -0.073,-0.101 -0.151,-0.203 -0.221,-0.31 l -0.009,-0.011 c -0.07,-0.102 -0.142,-0.203 -0.21,-0.306 -0.016,-0.03 -0.039,-0.065 -0.061,-0.097 -0.048,-0.078 -0.104,-0.157 -0.157,-0.24 -0.028,-0.039 -0.048,-0.078 -0.078,-0.117 -0.048,-0.079 -0.096,-0.149 -0.147,-0.227 -0.027,-0.048 -0.052,-0.09 -0.077,-0.133 -0.042,-0.078 -0.096,-0.158 -0.146,-0.237 -0.022,-0.047 -0.053,-0.093 -0.078,-0.144 -0.048,-0.078 -0.09,-0.161 -0.143,-0.239 -0.027,-0.042 -0.058,-0.098 -0.084,-0.146 -0.048,-0.092 -0.095,-0.171 -0.143,-0.255 -0.022,-0.047 -0.05,-0.1 -0.076,-0.154 -0.221,-0.406 -0.435,-0.826 -0.655,-1.279 v -0.009 l -1.103,-0.184 c 0.221,0.568 0.439,1.083 0.676,1.572 l -1.799,-2.533 1.799,0.177 c -1.539,-3.536 -2.667,-8.161 -2.667,-14.75 l 1.465,0.927 c 1.29,-7.353 7.353,-10.586 7.353,-10.586 l -0.01,0.046 C -4.683,7.478 -0.617,5.949 3.863,5.343 4.484,5.264 4.988,5.218 5.102,5.207 c 0.004,0 0.004,0 0.004,0.003 C 5.187,5.2 5.259,5.186 5.337,5.186 7.763,4.974 10.12,5.061 12.374,5.39 12.368,5.305 12.363,5.218 12.363,5.131 12.363,3.675 13.172,2.477 14.204,2.377 12.085,-1.225 10.37,-6.01 10.365,-6.033 10.283,-6.253 10.114,-6.66 9.943,-6.782 9.421,-6.899 9.379,-6.926 8.802,-7.105 l 0.009,0.007 C 8.616,-6.909 6.943,-6.596 5.239,-7.235 5.243,-7.244 5.243,-7.244 5.253,-7.252 4.288,-7.675 3.35,-8.448 2.699,-9.728 3.392,-9.169 4.685,-8.259 5.736,-8.385 4.49,-9.095 2.338,-10.45 2.092,-12.4 c 0,0 7.473,5.243 11.158,4.275 0,0 -0.536,-0.609 0.732,-2.874 l 0.58,2.107 c 0.664,2.044 -1.896,2.345 -2.972,2.389 0.005,0.015 0.005,0.022 0.005,0.025 0,0 0.119,0.327 0.328,0.869 0.634,1.637 2.111,5.256 3.728,7.839 0.03,0.055 0.051,0.112 0.068,0.166 l -0.303,0.417 c 0.003,0 0.218,0.235 0.335,0.409 0.214,0.338 0.511,0.914 0.516,1.674 0,0.596 -0.145,1.35 -0.571,2.285 l 0.958,0.444 c 0.051,-0.122 0.103,-0.235 0.154,-0.345 0.014,-0.042 0.028,-0.078 0.04,-0.11 0.03,-0.079 0.06,-0.157 0.087,-0.235 0.016,-0.036 0.029,-0.079 0.044,-0.118 0.026,-0.085 0.05,-0.164 0.078,-0.242 0.005,-0.024 0.021,-0.056 0.026,-0.084 l 5.47,1.652 -1.212,0.998 H 21.333 L 21.279,9.195 21.251,9.217 0.564,28.057 c 0.006,0 0.011,-0.01 0.011,-0.01 L 0.57,28.057 C 6.321,25.26 13.03,22.007 24.41,16.735 35.622,11.567 42.72,8.557 46.382,7.056 46.413,7.037 46.447,7.024 46.472,7.013 h 0.006 C 47.01,6.794 47.466,6.611 47.851,6.454 48.635,6.148 49.369,5.863 49.409,5.845 49.471,5.88 49.545,5.9 49.608,5.932 L 7.783,34.618 Z M 4.685,43.634 v 0 l -6.236,-4.743 4.476,9.842 v 0.009 C 3.636,47.232 4.234,45.507 4.69,43.634 Z M 26.948,9.698 27.105,8.949 H 27.101 L 34.388,4.651 36.232,3.58 35.224,6.174 c 6.012,-1.772 10.908,-1.872 14.164,-0.337 0,0 -0.004,0 -0.004,-0.003 C 43.717,4.16 29.663,8.895 26.948,9.698"
             inkscape:connector-curvature="0" /></g><g
           transform="translate(462.611,385.4246)"
           id="g72" /><g
           transform="translate(557.4296,380.2122)"
           id="g76" /><g
           transform="translate(660.7395,375.2952)"
           id="g80" /></g></g></g></svg>